{
	"id": "65e19d57-7206-4215-a604-3ed9d302df27",
	"name": "Final project Narnia",
	"values": [
		{
			"key": "baseUrl",
			"value": "http://localhost:8080",
			"enabled": true
		},
		{
			"key": "firstName",
			"value": "Ivan",
			"enabled": true
		},
		{
			"key": "lastName",
			"value": "Ivanov",
			"enabled": true
		},
		{
			"key": "user7_cookie",
			"value": "JSESSIONID=BC479D53EAD29855CD84654EDD3210BD",
			"enabled": true
		},
		{
			"key": "user7_id",
			"value": "11",
			"enabled": true
		},
		{
			"key": "user8_cookie",
			"value": "JSESSIONID=183B619B9B291EA831F0E443C20B9B5C",
			"enabled": true
		},
		{
			"key": "user8_id",
			"value": "13",
			"enabled": true
		},
		{
			"key": "userId",
			"value": "7",
			"enabled": true
		},
		{
			"key": "admin_cookie",
			"value": "JSESSIONID=95D9B38C001CE4A2ADEEB42DE5614687",
			"enabled": true
		}
	],
	"_postman_variable_scope": "environment",
	"_postman_exported_at": "2020-11-29T18:50:39.263Z",
	"_postman_exported_using": "Postman/7.36.0"
}